<?xml version='1.0' encoding='UTF-8'?>
<glyph name="Utilde" format="2">
  <advance width="771"/>
  <unicode hex="0168"/>
  <anchor x="386" y="0" name="bottom"/>
  <anchor x="540" y="17" name="ogonek"/>
  <anchor x="386" y="968" name="top"/>
  <outline>
    <contour>
      <point x="386" y="-20" type="curve" name="hintSet0000"/>
      <point x="596" y="-20"/>
      <point x="711" y="103"/>
      <point x="711" y="299" type="curve"/>
      <point x="711" y="730" type="line"/>
      <point x="525" y="730" type="line"/>
      <point x="525" y="295" type="line"/>
      <point x="525" y="207"/>
      <point x="475" y="154"/>
      <point x="386" y="154" type="curve"/>
      <point x="296" y="154"/>
      <point x="246" y="208"/>
      <point x="246" y="295" type="curve"/>
      <point x="246" y="730" type="line"/>
      <point x="60" y="730" type="line"/>
      <point x="60" y="299" type="line"/>
      <point x="60" y="103"/>
      <point x="176" y="-20"/>
    </contour>
    <contour>
      <point x="476" y="777" type="curve" name="hintSet0011"/>
      <point x="536" y="777"/>
      <point x="575" y="800"/>
      <point x="599" y="828" type="curve"/>
      <point x="573" y="952" type="line"/>
      <point x="554" y="930"/>
      <point x="523" y="911"/>
      <point x="476" y="911" type="curve"/>
      <point x="406" y="911" name="hintSet0015"/>
      <point x="384" y="967"/>
      <point x="295" y="967" type="curve"/>
      <point x="235" y="967"/>
      <point x="197" y="944"/>
      <point x="173" y="916" type="curve"/>
      <point x="199" y="792" type="line"/>
      <point x="218" y="814"/>
      <point x="248" y="833"/>
      <point x="295" y="833" type="curve"/>
      <point x="365" y="833" name="hintSet0019"/>
      <point x="387" y="777"/>
    </contour>
  </outline>
  <lib>
    <dict>
      <key>com.adobe.type.autohint.v2</key>
      <dict>
        <key>hintSetList</key>
        <array>
          <dict>
            <key>pointTag</key>
            <string>hintSet0000</string>
            <key>stems</key>
            <array>
              <string>hstem -20 174</string>
              <string>hstem 730 -20</string>
              <string>hstem 833 134</string>
              <string>vstem 60 186</string>
              <string>vstem 525 186</string>
            </array>
          </dict>
          <dict>
            <key>pointTag</key>
            <string>hintSet0011</string>
            <key>stems</key>
            <array>
              <string>hstem -20 174</string>
              <string>hstem 730 -20</string>
              <string>hstem 777 134</string>
              <string>vstem 60 186</string>
              <string>vstem 525 186</string>
            </array>
          </dict>
          <dict>
            <key>pointTag</key>
            <string>hintSet0015</string>
            <key>stems</key>
            <array>
              <string>hstem -20 174</string>
              <string>hstem 730 -20</string>
              <string>hstem 833 134</string>
              <string>vstem 60 186</string>
              <string>vstem 525 186</string>
            </array>
          </dict>
          <dict>
            <key>pointTag</key>
            <string>hintSet0019</string>
            <key>stems</key>
            <array>
              <string>hstem -20 174</string>
              <string>hstem 730 -20</string>
              <string>hstem 777 134</string>
              <string>vstem 60 186</string>
              <string>vstem 525 186</string>
            </array>
          </dict>
        </array>
        <key>id</key>
        <string>42b60577141dc5895d2dea4fb97fdf9aec3bbc5d95a51fad65ac364bff557a9cf7dfbfbe4d4c421d3fc466a6b1342651a77ddcf42f2a7ed794fafbf0a59407a9</string>
      </dict>
      <key>public.markColor</key>
      <string>0,0.67,0.91,1</string>
    </dict>
  </lib>
</glyph>
