<?xml version='1.0' encoding='UTF-8'?>
<glyph name="wgrave" format="2">
  <advance width="946"/>
  <unicode hex="1E81"/>
  <outline>
    <contour>
      <point x="392" y="612" type="line" name="hintSet0000"/>
      <point x="556" y="612" type="line"/>
      <point x="468" y="824" type="line"/>
      <point x="278" y="824" type="line"/>
    </contour>
    <contour>
      <point x="159" y="0" type="line"/>
      <point x="406" y="0" type="line"/>
      <point x="472" y="329" type="line"/>
      <point x="544" y="0" type="line"/>
      <point x="792" y="0" type="line"/>
      <point x="924" y="552" type="line"/>
      <point x="758" y="552" type="line"/>
      <point x="670" y="152" type="line"/>
      <point x="650" y="152" type="line"/>
      <point x="570" y="534" type="line"/>
      <point x="380" y="534" type="line"/>
      <point x="310" y="152" type="line"/>
      <point x="289" y="152" type="line"/>
      <point x="192" y="552" type="line"/>
      <point x="14" y="552" type="line"/>
    </contour>
  </outline>
  <lib>
    <dict>
      <key>com.adobe.type.autohint.v2</key>
      <dict>
        <key>hintSetList</key>
        <array>
          <dict>
            <key>pointTag</key>
            <string>hintSet0000</string>
            <key>stems</key>
            <array>
              <string>hstem 0 152</string>
              <string>hstem 552 -20</string>
              <string>hstem 612 212</string>
              <string>vstem 14 910</string>
            </array>
          </dict>
        </array>
        <key>id</key>
        <string>cb516856c51b6505f204a29fe86a8a604d0d8ee5558e9ca2bf10f0a0b3b5c1c3783da25a74e544767b1edf953d99df1ad14bab279ae56d8f98beae022376a12a</string>
      </dict>
    </dict>
  </lib>
</glyph>
