<?xml version='1.0' encoding='UTF-8'?>
<glyph name="Ccaron" format="2">
  <advance width="794"/>
  <unicode hex="010C"/>
  <anchor x="421" y="0" name="bottom"/>
  <anchor x="419" y="947" name="top"/>
  <outline>
    <component base="C"/>
    <component base="caroncomb.case" xOffset="253"/>
  </outline>
  <lib>
    <dict>
      <key>public.markColor</key>
      <string>0,0.67,0.91,1</string>
    </dict>
  </lib>
</glyph>
