<?xml version='1.0' encoding='UTF-8'?>
<glyph name="comma" format="2">
  <outline>
    <contour>
      <point x="27" y="-125" type="line"/>
      <point x="104" y="-154" type="line"/>
      <point x="198" y="100" type="line"/>
      <point x="119" y="130" type="line"/>
    </contour>
  </outline>
</glyph>
