<?xml version='1.0' encoding='UTF-8'?>
<glyph name="currency" format="2">
  <advance width="640"/>
  <unicode hex="00A4"/>
  <outline>
    <contour>
      <point x="91" y="125" type="line" name="hintSet0000"/>
      <point x="180" y="211" type="line"/>
      <point x="216" y="179"/>
      <point x="264" y="159"/>
      <point x="320" y="159" type="curve"/>
      <point x="376" y="159"/>
      <point x="424" y="179"/>
      <point x="460" y="211" type="curve"/>
      <point x="549" y="125" type="line"/>
      <point x="568" y="144" type="line"/>
      <point x="479" y="230" type="line"/>
      <point x="510" y="267"/>
      <point x="528" y="315"/>
      <point x="528" y="366" type="curve"/>
      <point x="528" y="376" type="line"/>
      <point x="528" y="428"/>
      <point x="510" y="476"/>
      <point x="479" y="512" type="curve"/>
      <point x="568" y="598" type="line"/>
      <point x="549" y="617" type="line"/>
      <point x="461" y="531" type="line"/>
      <point x="425" y="563"/>
      <point x="377" y="583"/>
      <point x="320" y="583" type="curve"/>
      <point x="263" y="583"/>
      <point x="215" y="563"/>
      <point x="179" y="531" type="curve"/>
      <point x="91" y="617" type="line"/>
      <point x="72" y="598" type="line"/>
      <point x="161" y="512" type="line"/>
      <point x="130" y="476"/>
      <point x="112" y="428"/>
      <point x="112" y="376" type="curve"/>
      <point x="112" y="366" type="line"/>
      <point x="112" y="315"/>
      <point x="130" y="267"/>
      <point x="161" y="230" type="curve"/>
      <point x="72" y="144" type="line"/>
    </contour>
    <contour>
      <point x="320" y="187" type="curve"/>
      <point x="213" y="187"/>
      <point x="142" y="270"/>
      <point x="142" y="371" type="curve"/>
      <point x="142" y="475"/>
      <point x="213" y="555"/>
      <point x="320" y="555" type="curve"/>
      <point x="427" y="555"/>
      <point x="498" y="475"/>
      <point x="498" y="371" type="curve"/>
      <point x="498" y="270"/>
      <point x="427" y="187"/>
    </contour>
  </outline>
  <lib>
    <dict>
      <key>com.adobe.type.autohint.v2</key>
      <dict>
        <key>hintSetList</key>
        <array>
          <dict>
            <key>pointTag</key>
            <string>hintSet0000</string>
            <key>stems</key>
            <array>
              <string>hstem 159 28</string>
              <string>hstem 555 28</string>
              <string>vstem 112 30</string>
              <string>vstem 498 30</string>
            </array>
          </dict>
        </array>
        <key>id</key>
        <string>e17ca529d5d784d5ccd191ebbfaac6fa7f57cd6defc9b54c1069e9a3036c6de9fb9e9991315fb77ac4f341d6d7eb597baad5bc1af546a7cab6a8016ea32a2671</string>
      </dict>
    </dict>
  </lib>
</glyph>
