<?xml version='1.0' encoding='UTF-8'?>
<glyph name="Eng" format="2">
  <outline>
    <contour>
      <point x="444" y="-242" type="line"/>
      <point x="547" y="-242" type="line" smooth="yes"/>
      <point x="721" y="-242"/>
      <point x="805" y="-169"/>
      <point x="805" y="5" type="curve" smooth="yes"/>
      <point x="805" y="720" type="line"/>
      <point x="631" y="720" type="line"/>
      <point x="631" y="150" type="line"/>
      <point x="651" y="168" type="line"/>
      <point x="608" y="168" type="line"/>
      <point x="378" y="720" type="line"/>
      <point x="73" y="720" type="line"/>
      <point x="73" y="0" type="line"/>
      <point x="245" y="0" type="line"/>
      <point x="245" y="590" type="line"/>
      <point x="225" y="572" type="line"/>
      <point x="260" y="572" type="line"/>
      <point x="490" y="20" type="line"/>
      <point x="661" y="20" type="line"/>
      <point x="635" y="48" type="line"/>
      <point x="635" y="1" type="line" smooth="yes"/>
      <point x="635" y="-60"/>
      <point x="609" y="-81"/>
      <point x="557" y="-81" type="curve" smooth="yes"/>
      <point x="444" y="-81" type="line"/>
    </contour>
  </outline>
</glyph>
