<?xml version='1.0' encoding='UTF-8'?>
<glyph name="germandbls" format="2">
  <outline>
    <contour>
      <point x="406" y="-14" type="curve" smooth="yes"/>
      <point x="543" y="-14"/>
      <point x="666" y="52"/>
      <point x="666" y="206" type="curve" smooth="yes"/>
      <point x="666" y="336"/>
      <point x="576" y="414"/>
      <point x="411" y="414" type="curve"/>
      <point x="411" y="370" type="line"/>
      <point x="551" y="370"/>
      <point x="610" y="438"/>
      <point x="610" y="532" type="curve" smooth="yes"/>
      <point x="610" y="656"/>
      <point x="506" y="742"/>
      <point x="350" y="742" type="curve" smooth="yes"/>
      <point x="346" y="742" type="line" smooth="yes"/>
      <point x="181" y="742"/>
      <point x="76" y="654"/>
      <point x="76" y="494" type="curve" smooth="yes"/>
      <point x="76" y="0" type="line"/>
      <point x="258" y="0" type="line"/>
      <point x="258" y="500" type="line" smooth="yes"/>
      <point x="258" y="566"/>
      <point x="301" y="596"/>
      <point x="348" y="596" type="curve" smooth="yes"/>
      <point x="394" y="596"/>
      <point x="428" y="567"/>
      <point x="428" y="520" type="curve" smooth="yes"/>
      <point x="428" y="480"/>
      <point x="403" y="452"/>
      <point x="359" y="452" type="curve" smooth="yes"/>
      <point x="326" y="452" type="line"/>
      <point x="326" y="320" type="line"/>
      <point x="370" y="320" type="line" smooth="yes"/>
      <point x="452" y="320"/>
      <point x="484" y="274"/>
      <point x="484" y="222" type="curve" smooth="yes"/>
      <point x="484" y="161"/>
      <point x="443" y="132"/>
      <point x="386" y="132" type="curve" smooth="yes"/>
      <point x="360" y="132"/>
      <point x="332" y="138"/>
      <point x="308" y="145" type="curve"/>
      <point x="308" y="-1" type="line"/>
      <point x="332" y="-9"/>
      <point x="368" y="-14"/>
    </contour>
    <contour>
      <point x="16" y="392" type="line"/>
      <point x="106" y="392" type="line"/>
      <point x="106" y="524" type="line"/>
      <point x="16" y="524" type="line"/>
    </contour>
  </outline>
</glyph>
