<?xml version='1.0' encoding='UTF-8'?>
<glyph name="seven" format="2">
  <advance width="589"/>
  <unicode hex="0037"/>
  <outline>
    <contour>
      <point x="144" y="0" type="line"/>
      <point x="278" y="0" type="line"/>
      <point x="560" y="620" type="line"/>
      <point x="560" y="730" type="line"/>
      <point x="41" y="730" type="line"/>
      <point x="41" y="624" type="line"/>
      <point x="419" y="624" type="line"/>
      <point x="428" y="612" type="line"/>
    </contour>
    <contour>
      <point x="41" y="507" type="line"/>
      <point x="145" y="507" type="line"/>
      <point x="145" y="730" type="line"/>
      <point x="41" y="730" type="line"/>
    </contour>
  </outline>
  <lib>
    <dict>
      <key>public.markColor</key>
      <string>0.18,0.16,0.78,1</string>
    </dict>
  </lib>
</glyph>
