<?xml version='1.0' encoding='UTF-8'?>
<glyph name="umacron.salt" format="2">
  <advance width="622"/>
  <anchor x="311" y="0" name="bottom"/>
  <anchor x="415" y="10" name="ogonek"/>
  <anchor x="311" y="793" name="top"/>
  <anchor x="599" y="534" name="topright"/>
  <outline>
    <component base="u.salt"/>
    <component base="macroncomb" xOffset="158" yOffset="-6"/>
  </outline>
  <lib>
    <dict>
      <key>public.markColor</key>
      <string>0.75,0.75,0.75,1</string>
    </dict>
  </lib>
</glyph>
